[
    {
        "1": "How many Keywords are there in C Programming language ?",
        "2": "Which of the following functions takes A console Input in Python ?",
        "3": "Which among the following is not an operating system ?",
        "4": "Which of The Following is must to Execute a Python Code ?",
        "5": "The Third Generation Computer used …",
        "6": "The append Method adds value to the list at the  ?",
        "7": "Who among the following has created the 'twitter' ?",
        "8": "Which of The following is executed in browser(client side) ?",
        "9": "Which of the following keyword is used to create a function in Python ?",
        "10": "To Declare a Global variable in python we use the keyword ?"
    },
    {
        "1": [
            "23",
            "32",
            "33",
            "43"
        ],
        "2": [
            "get()",
            "input()",
            "gets()",
            "scan()"
        ],
        "3": [
            "UNIX",
            "LINUX",
            "OS X",
            "PITEX"
        ],
        "4": [
            "TURBO C",
            "Py Interpreter",
            "Notepad",
            "IDE"
        ],
        "5": [
            "Transistors",
            "Integrated circuit",
            "Vacuum tube",
            "Chip"
        ],
        "6": [
            "custom location",
            "end",
            "center",
            "beginning"
        ],
        "7": [
            "Jack Dorsey",
            "Butler Lampson",
            "Ronald Rider",
            "Greg Chesson"
        ],
        "8": [
            "perl",
            "css",
            "python",
            "java"
        ],
        "9": [
            "function",
            "void",
            "fun",
            "def"
        ],
        "10": [
            "all",
            "var",
            "let",
            "global"
        ]
    },
  {
    "1": 1,
    "2": 1,
    "3": 3,
    "4": 1,
    "5": 1,
    "6": 1,
    "7": 0,
    "8": 1,
    "9": 3,
    "10": 3
  }
]