[
    {
        "1": "A signal is a power signal when the signal has",
        "2": "The function which relates output of a system to the input(signal) of a system is",
        "3": "Which of the following is the 16bit registors in 8085 processor",
        "4": "In 8088, which of the following option differs from 8086",
        "5": "Which of the following depends on the microprocessor speed",
        "6": " ____ number of terminals does a diode have",
        "7": "Which of the following elements are most frequently used for doping pure Ge or Si ?",
        "8": " In _________ communication transmission media is open space or free space.",
        "9": "__________ is equipment which converts electrical signal back to the physical message.",
        "10": "__________ is known as fastest switching logic family"
    },
    {
        "1": [
            "Infinite average power",
            "finite average power",
            "Zero average power",
            "None Of The Above"
        ],
        "2": [
            "Periodic function",
            "Non-periodic function",
            "Transfer function",
            "None of the above"
        ],
        "3": [
            "Stack Pointer",
            "Program Counter",
            "IR",
            "a and b"
        ],
        "4": [
            "Data width on the output",
            "Supports Co-processor",
            "Address capability",
            "Supports max/min mode"
        ],
        "5": [
            "Clock",
            "Data Bus Width",
            "Address Bus Width",
            "Size of Register"
        ],
        "6": [
            "1",
            "2",
            "3",
            "4"
        ],
        "7": [
            "Boron",
            "Gallium",
            "Indium",
            "all the above"
        ],
        "8": [
            "Line",
            "Radio",
            "Transmitter",
            "None of these"
        ],
        "9": [
            "Transmitter",
            "Receiver",
            "Channel",
            "None of these"
        ],
        "10": [
            "CMOS",
            "TTL",
            "DTL",
            "ECL"
        ]
    },
  {
    "1": 1,
    "2": 2,
    "3": 3,
    "4": 0,
    "5": 2,
    "6": 1,
    "7": 3,
    "8": 1,
    "9": 1,
    "10": 3
  }
]